{
  "project_info": {
    "project_number": "191621924756",
    "firebase_url": "https://edu-sex.firebaseio.com",
    "project_id": "edu-sex",
    "storage_bucket": "edu-sex.appspot.com"
  },
  "client": [
    {
      "client_info": {
        "mobilesdk_app_id": "1:191621924756:android:d0afb82bd1a81fd0cd3181",
        "android_client_info": {
          "package_name": "com.sex.edu"
        }
      },
      "oauth_client": [
        {
          "client_id": "191621924756-fiiukppeo6legk1hnqhublr8b7sahcme.apps.googleusercontent.com",
          "client_type": 3
        }
      ],
      "api_key": [
        {
          "current_key": "AIzaSyAsfY3KhM2BF1BfXkHA4vemGKijhrAK4Fo"
        }
      ],
      "services": {
        "appinvite_service": {
          "other_platform_oauth_client": [
            {
              "client_id": "191621924756-fiiukppeo6legk1hnqhublr8b7sahcme.apps.googleusercontent.com",
              "client_type": 3
            }
          ]
        }
      }
    }
  ],
  "configuration_version": "1"
}